{
  "name": "Qwilfish",
  "nationalPokedexNumber": 211,
  "primaryType": "water",
  "secondaryType": "poison",
  "abilities": [
    "poisonpoint",
    "swiftswim",
    "h:intimidate"
  ],
  "baseStats": {
    "hp": 65,
    "attack": 95,
    "defence": 85,
    "special_attack": 55,
    "special_defence": 55,
    "speed": 85
  },
  "catchRate": 45,
  "maleRatio": 0.5,
  "shoulderMountable": false,
  "forms": [
    {
      "name": "Hisui",
      "primaryType": "dark",
      "secondaryType": "poison",
      "abilities": [
        "poisonpoint",
        "swiftswim",
        "h:intimidate"
      ],
      "baseStats": {
        "hp": 65,
        "attack": 95,
        "defence": 85,
        "special_attack": 55,
        "special_defence": 55,
        "speed": 85
      },
      "catchRate": 45,
      "maleRatio": 0.5,
      "baseExperienceYield": 88,
      "baseFriendship": 50,
      "evYield": {
        "hp": 0,
        "attack": 1,
        "defence": 0,
        "special_attack": 0,
        "special_defence": 0,
        "speed": 0
      },
      "experienceGroup": "medium_fast",
      "eggCycles": 20,
      "eggGroups": [
        "water_2"
      ],
      "moves": [
        "1:poisonsting",
        "1:tackle",
        "4:harden",
        "8:bite",
        "12:fellstinger",
        "16:minimize",
        "20:spikes",
        "24:brine",
        "28:barbbarrage",
        "32:pinmissile",
        "36:toxicspikes",
        "40:spitup",
        "40:stockpile",
        "44:toxic",
        "48:crunch",
        "52:acupressure",
        "56:destinybond",
        "egg:acidspray",
        "egg:aquajet",
        "egg:aquatail",
        "egg:astonish",
        "egg:bubblebeam",
        "egg:flail",
        "egg:haze",
        "egg:selfdestruct",
        "egg:supersonic",
        "egg:waterpulse",
        "tm:acidspray",
        "tm:agility",
        "tm:blizzard",
        "tm:chillingwater",
        "tm:crunch",
        "tm:darkpulse",
        "tm:endure",
        "tm:facade",
        "tm:gigaimpact",
        "tm:gunkshot",
        "tm:hex",
        "tm:hydropump",
        "tm:icebeam",
        "tm:icywind",
        "tm:liquidation",
        "tm:mudshot",
        "tm:poisonjab",
        "tm:poisontail",
        "tm:protect",
        "tm:raindance",
        "tm:rest",
        "tm:reversal",
        "tm:scaryface",
        "tm:shadowball",
        "tm:sleeptalk",
        "tm:sludgebomb",
        "tm:spikes",
        "tm:substitute",
        "tm:surf",
        "tm:swift",
        "tm:swordsdance",
        "tm:takedown",
        "tm:taunt",
        "tm:terablast",
        "tm:toxicspikes",
        "tm:venoshock",
        "tm:waterfall",
        "tm:waterpulse"
      ],
      "labels": [
        "gen8",
        "hisui_regional"
      ],
      "aspects": [
        "hisuian"
      ],
      "height": 5,
      "weight": 39,
      "evolutions": [
        {
          "id": "qwilfish_overqwil",
          "variant": "level_up",
          "result": "overqwil",
          "consumeHeldItem": false,
          "learnableMoves": [],
          "requirements": [
            {
              "variant": "use_move",
              "move": "barbbarrage",
              "amount": 20
            }
          ]
        }
      ],
      "cannotDynamax": false,
      "battleOnly": false
    }
  ],
  "baseExperienceYield": 88,
  "experienceGroup": "medium_fast",
  "eggCycles": 20,
  "eggGroups": [
    "water_2"
  ],
  "moves": [
    "1:hydropump",
    "1:poisonsting",
    "1:tackle",
    "4:harden",
    "8:watergun",
    "12:fellstinger",
    "13:bubble",
    "16:minimize",
    "17:rollout",
    "20:spikes",
    "24:brine",
    "28:poisonjab",
    "28:revenge",
    "32:pinmissile",
    "36:toxicspikes",
    "40:spitup",
    "40:stockpile",
    "44:toxic",
    "48:aquatail",
    "48:takedown",
    "52:acupressure",
    "56:destinybond",
    "egg:acidspray",
    "egg:aquajet",
    "egg:astonish",
    "egg:barbbarrage",
    "egg:brine",
    "egg:bubblebeam",
    "egg:flail",
    "egg:haze",
    "egg:poisonjab",
    "egg:selfdestruct",
    "egg:signalbeam",
    "egg:supersonic",
    "egg:waterpulse",
    "tm:acidspray",
    "tm:agility",
    "tm:assurance",
    "tm:attract",
    "tm:blizzard",
    "tm:bounce",
    "tm:brine",
    "tm:captivate",
    "tm:chillingwater",
    "tm:confide",
    "tm:crunch",
    "tm:dive",
    "tm:doubleteam",
    "tm:endure",
    "tm:explosion",
    "tm:facade",
    "tm:frustration",
    "tm:gigaimpact",
    "tm:gunkshot",
    "tm:gyroball",
    "tm:hail",
    "tm:hex",
    "tm:hiddenpower",
    "tm:hydropump",
    "tm:icebeam",
    "tm:icywind",
    "tm:liquidation",
    "tm:mudshot",
    "tm:naturalgift",
    "tm:payback",
    "tm:pinmissile",
    "tm:poisonjab",
    "tm:poisontail",
    "tm:protect",
    "tm:raindance",
    "tm:rest",
    "tm:return",
    "tm:revenge",
    "tm:reversal",
    "tm:round",
    "tm:scald",
    "tm:scaryface",
    "tm:secretpower",
    "tm:selfdestruct",
    "tm:shadowball",
    "tm:shockwave",
    "tm:sleeptalk",
    "tm:sludgebomb",
    "tm:sludgewave",
    "tm:snore",
    "tm:spikes",
    "tm:substitute",
    "tm:surf",
    "tm:swagger",
    "tm:swift",
    "tm:swordsdance",
    "tm:takedown",
    "tm:taunt",
    "tm:terablast",
    "tm:throatchop",
    "tm:thunderwave",
    "tm:toxic",
    "tm:toxicspikes",
    "tm:venomdrench",
    "tm:venoshock",
    "tm:waterfall",
    "tm:waterpulse",
    "tm:whirlpool",
    "tutor:aquajet",
    "tutor:aquatail",
    "tutor:attract",
    "tutor:blizzard",
    "tutor:bounce",
    "tutor:bubblebeam",
    "tutor:curse",
    "tutor:defensecurl",
    "tutor:dive",
    "tutor:doubleedge",
    "tutor:doubleteam",
    "tutor:endure",
    "tutor:flail",
    "tutor:frustration",
    "tutor:harden",
    "tutor:haze",
    "tutor:headbutt",
    "tutor:hiddenpower",
    "tutor:hydropump",
    "tutor:icywind",
    "tutor:liquidation",
    "tutor:mimic",
    "tutor:minimize",
    "tutor:painsplit",
    "tutor:pinmissile",
    "tutor:poisonsting",
    "tutor:protect",
    "tutor:raindance",
    "tutor:rest",
    "tutor:return",
    "tutor:rollout",
    "tutor:scaleshot",
    "tutor:secretpower",
    "tutor:selfdestruct",
    "tutor:shockwave",
    "tutor:signalbeam",
    "tutor:sleeptalk",
    "tutor:sludgebomb",
    "tutor:snore",
    "tutor:spikes",
    "tutor:steelroller",
    "tutor:substitute",
    "tutor:supersonic",
    "tutor:surf",
    "tutor:swagger",
    "tutor:swift",
    "tutor:swordsdance",
    "tutor:tackle",
    "tutor:takedown",
    "tutor:throatchop",
    "tutor:thunderwave",
    "tutor:toxic",
    "tutor:waterfall",
    "tutor:watergun",
    "tutor:waterpulse",
    "tutor:whirlpool"
  ],
  "labels": [
    "gen2",
    "johto_regional"
  ],
  "pokedex": [
    "cobblemon.species.qwilfish.desc"
  ],
  "evolutions": [],
  "baseScale": 1,
  "hitbox": {
    "width": 1,
    "height": 1,
    "fixed": false
  },
  "baseFriendship": 50,
  "evYield": {
    "hp": 0,
    "attack": 1,
    "defence": 0,
    "special_attack": 0,
    "special_defence": 0,
    "speed": 0
  },
  "height": 5,
  "weight": 39,
  "aspects": [],
  "cannotDynamax": false
}