{
  "name": "Snubbull",
  "nationalPokedexNumber": 209,
  "primaryType": "fairy",
  "abilities": [
    "intimidate",
    "runaway",
    "h:rattled"
  ],
  "baseStats": {
    "hp": 60,
    "attack": 80,
    "defence": 50,
    "special_attack": 40,
    "special_defence": 40,
    "speed": 30
  },
  "catchRate": 190,
  "maleRatio": 0.25,
  "shoulderMountable": false,
  "baseExperienceYield": 60,
  "experienceGroup": "fast",
  "eggCycles": 20,
  "eggGroups": [
    "field",
    "fairy"
  ],
  "moves": [
    "1:charm",
    "1:firefang",
    "1:icefang",
    "1:scaryface",
    "1:tackle",
    "1:tailwhip",
    "1:thunderfang",
    "7:bite",
    "13:lick",
    "19:headbutt",
    "25:roar",
    "31:rage",
    "37:playrough",
    "37:takedown",
    "43:payback",
    "49:crunch",
    "egg:closecombat",
    "egg:crunch",
    "egg:doubleedge",
    "egg:faketears",
    "egg:feintattack",
    "egg:firefang",
    "egg:focuspunch",
    "egg:healbell",
    "egg:icefang",
    "egg:metronome",
    "egg:mimic",
    "egg:present",
    "egg:reflect",
    "egg:smellingsalts",
    "egg:snore",
    "egg:thunderfang",
    "tm:attract",
    "tm:brickbreak",
    "tm:bulkup",
    "tm:bulldoze",
    "tm:captivate",
    "tm:confide",
    "tm:dazzlinggleam",
    "tm:dig",
    "tm:doubleteam",
    "tm:earthquake",
    "tm:endure",
    "tm:facade",
    "tm:fireblast",
    "tm:flamethrower",
    "tm:fling",
    "tm:focuspunch",
    "tm:frustration",
    "tm:hiddenpower",
    "tm:incinerate",
    "tm:naturalgift",
    "tm:overheat",
    "tm:payback",
    "tm:poweruppunch",
    "tm:protect",
    "tm:raindance",
    "tm:reflect",
    "tm:rest",
    "tm:retaliate",
    "tm:return",
    "tm:roar",
    "tm:rocksmash",
    "tm:round",
    "tm:secretpower",
    "tm:shadowball",
    "tm:shockwave",
    "tm:sleeptalk",
    "tm:sludgebomb",
    "tm:snarl",
    "tm:solarbeam",
    "tm:strength",
    "tm:substitute",
    "tm:sunnyday",
    "tm:swagger",
    "tm:taunt",
    "tm:thief",
    "tm:thunder",
    "tm:thunderbolt",
    "tm:thunderwave",
    "tm:torment",
    "tm:toxic",
    "tm:waterpulse",
    "tm:wildcharge",
    "tm:workup",
    "tutor:attract",
    "tutor:bite",
    "tutor:bodyslam",
    "tutor:charm",
    "tutor:closecombat",
    "tutor:counter",
    "tutor:covet",
    "tutor:crunch",
    "tutor:curse",
    "tutor:defensecurl",
    "tutor:detect",
    "tutor:doubleedge",
    "tutor:doubleteam",
    "tutor:dynamicpunch",
    "tutor:endure",
    "tutor:feintattack",
    "tutor:firepunch",
    "tutor:focuspunch",
    "tutor:frustration",
    "tutor:headbutt",
    "tutor:healbell",
    "tutor:hiddenpower",
    "tutor:hypervoice",
    "tutor:icepunch",
    "tutor:lastresort",
    "tutor:leer",
    "tutor:lick",
    "tutor:lowkick",
    "tutor:megakick",
    "tutor:megapunch",
    "tutor:metronome",
    "tutor:mimic",
    "tutor:mudslap",
    "tutor:present",
    "tutor:protect",
    "tutor:rage",
    "tutor:raindance",
    "tutor:reflect",
    "tutor:rest",
    "tutor:return",
    "tutor:roar",
    "tutor:rocksmash",
    "tutor:scaryface",
    "tutor:seismictoss",
    "tutor:shadowball",
    "tutor:shockwave",
    "tutor:sleeptalk",
    "tutor:sludgebomb",
    "tutor:snore",
    "tutor:strength",
    "tutor:substitute",
    "tutor:sunnyday",
    "tutor:superfang",
    "tutor:superpower",
    "tutor:swagger",
    "tutor:tackle",
    "tutor:tailwhip",
    "tutor:takedown",
    "tutor:thief",
    "tutor:thunder",
    "tutor:thunderpunch",
    "tutor:thunderwave",
    "tutor:toxic",
    "tutor:waterpulse",
    "tutor:zapcannon"
  ],
  "labels": [
    "gen2"
  ],
  "pokedex": [
    "cobblemon.species.snubbull.desc"
  ],
  "evolutions": [
    {
      "id": "snubbull_granbull",
      "variant": "level_up",
      "result": "granbull",
      "consumeHeldItem": false,
      "learnableMoves": [],
      "requirements": [
        {
          "variant": "level",
          "minLevel": 23
        }
      ]
    }
  ],
  "baseScale": 1,
  "hitbox": {
    "width": 1,
    "height": 1,
    "fixed": false
  },
  "baseFriendship": 70,
  "evYield": {
    "hp": 0,
    "attack": 1,
    "defence": 0,
    "special_attack": 0,
    "special_defence": 0,
    "speed": 0
  },
  "height": 6,
  "weight": 78,
  "aspects": [],
  "cannotDynamax": false
}