{
  "name": "Timburr",
  "nationalPokedexNumber": 532,
  "primaryType": "fighting",
  "abilities": [
    "guts",
    "sheerforce",
    "h:ironfist"
  ],
  "baseStats": {
    "hp": 75,
    "attack": 80,
    "defence": 55,
    "special_attack": 25,
    "special_defence": 35,
    "speed": 35
  },
  "catchRate": 180,
  "maleRatio": 0.75,
  "shoulderMountable": false,
  "baseExperienceYield": 61,
  "experienceGroup": "medium_slow",
  "eggCycles": 20,
  "eggGroups": [
    "human_like"
  ],
  "moves": [
    "1:leer",
    "1:pound",
    "4:lowkick",
    "8:bide",
    "8:rockthrow",
    "12:focusenergy",
    "16:bulkup",
    "20:rockslide",
    "20:wakeupslap",
    "24:chipaway",
    "24:slam",
    "28:scaryface",
    "32:dynamicpunch",
    "36:hammerarm",
    "40:stoneedge",
    "44:superpower",
    "48:focuspunch",
    "egg:cometpunch",
    "egg:counter",
    "egg:defog",
    "egg:detect",
    "egg:drainpunch",
    "egg:endure",
    "egg:forcepalm",
    "egg:foresight",
    "egg:machpunch",
    "egg:poweruppunch",
    "egg:reversal",
    "egg:smellingsalts",
    "egg:wideguard",
    "tm:attract",
    "tm:brickbreak",
    "tm:brutalswing",
    "tm:bulkup",
    "tm:confide",
    "tm:dig",
    "tm:doubleteam",
    "tm:drainpunch",
    "tm:endure",
    "tm:facade",
    "tm:firepunch",
    "tm:fling",
    "tm:focusblast",
    "tm:focusenergy",
    "tm:frustration",
    "tm:grassknot",
    "tm:helpinghand",
    "tm:hiddenpower",
    "tm:icepunch",
    "tm:lowkick",
    "tm:lowsweep",
    "tm:megakick",
    "tm:megapunch",
    "tm:payback",
    "tm:poisonjab",
    "tm:poweruppunch",
    "tm:protect",
    "tm:raindance",
    "tm:rest",
    "tm:retaliate",
    "tm:return",
    "tm:revenge",
    "tm:reversal",
    "tm:rockslide",
    "tm:rocksmash",
    "tm:rocktomb",
    "tm:round",
    "tm:scaryface",
    "tm:secretpower",
    "tm:sleeptalk",
    "tm:smackdown",
    "tm:snore",
    "tm:stoneedge",
    "tm:strength",
    "tm:substitute",
    "tm:sunnyday",
    "tm:superpower",
    "tm:swagger",
    "tm:taunt",
    "tm:thunderpunch",
    "tm:toxic",
    "tm:workup",
    "tutor:block",
    "tutor:coaching",
    "tutor:drainpunch",
    "tutor:firepunch",
    "tutor:focuspunch",
    "tutor:helpinghand",
    "tutor:icepunch",
    "tutor:knockoff",
    "tutor:lowkick",
    "tutor:sleeptalk",
    "tutor:snore",
    "tutor:superpower",
    "tutor:thunderpunch"
  ],
  "labels": [
    "gen5"
  ],
  "pokedex": [
    "cobblemon.species.timburr.desc"
  ],
  "evolutions": [
    {
      "id": "timburr_gurdurr",
      "variant": "level_up",
      "result": "gurdurr",
      "consumeHeldItem": false,
      "learnableMoves": [],
      "requirements": [
        {
          "variant": "level",
          "minLevel": 25
        }
      ]
    }
  ],
  "baseScale": 1,
  "hitbox": {
    "width": 1,
    "height": 1,
    "fixed": false
  },
  "baseFriendship": 70,
  "evYield": {
    "hp": 0,
    "attack": 1,
    "defence": 0,
    "special_attack": 0,
    "special_defence": 0,
    "speed": 0
  },
  "height": 6,
  "weight": 125,
  "aspects": [],
  "cannotDynamax": false
}