{
  "implemented": true,
  "name": "Magmortar",
  "nationalPokedexNumber": 467,
  "primaryType": "fire",
  "abilities": [
    "flamebody",
    "h:vitalspirit"
  ],
  "baseStats": {
    "hp": 75,
    "attack": 95,
    "defence": 67,
    "special_attack": 125,
    "special_defence": 95,
    "speed": 83
  },
  "catchRate": 30,
  "maleRatio": 0.75,
  "shoulderMountable": false,
  "baseExperienceYield": 270,
  "experienceGroup": "medium_fast",
  "eggCycles": 25,
  "eggGroups": [
    "human_like"
  ],
  "drops": {
    "amount": "1",
    "entries": [
      {
        "item": "minecraft:blaze_powder",
        "percentage": 10
      },
      {
        "item": "cobblemon:magmarizer",
        "percentage": 10
      }
    ]
  },
  "moves": [
    "1:ember",
    "1:leer",
    "1:smog",
    "1:smokescreen",
    "1:thunderpunch",
    "12:clearsmog",
    "12:feintattack",
    "15:firespin",
    "16:feintattack",
    "16:flamewheel",
    "19:clearsmog",
    "19:firespin",
    "20:confuseray",
    "21:firespin",
    "22:flameburst",
    "24:scaryface",
    "25:confuseray",
    "26:confuseray",
    "28:firepunch",
    "29:firepunch",
    "32:flameburst",
    "34:lavaplume",
    "36:lavaplume",
    "37:lavaplume",
    "38:firepunch",
    "40:lowkick",
    "42:sunnyday",
    "43:flamethrower",
    "44:lavaplume",
    "46:flamethrower",
    "49:flamethrower",
    "50:flamethrower",
    "52:sunnyday",
    "55:fireblast",
    "56:sunnyday",
    "58:fireblast",
    "62:fireblast",
    "62:hyperbeam",
    "64:hyperbeam",
    "67:hyperbeam",
    "68:hyperbeam",
    "tm:attract",
    "tm:bodyslam",
    "tm:brickbreak",
    "tm:bulldoze",
    "tm:captivate",
    "tm:confide",
    "tm:doubleteam",
    "tm:earthquake",
    "tm:endure",
    "tm:facade",
    "tm:fireblast",
    "tm:firepunch",
    "tm:firespin",
    "tm:flamecharge",
    "tm:flamethrower",
    "tm:flareblitz",
    "tm:fling",
    "tm:focusblast",
    "tm:focusenergy",
    "tm:focuspunch",
    "tm:frustration",
    "tm:gigaimpact",
    "tm:heatwave",
    "tm:helpinghand",
    "tm:hiddenpower",
    "tm:hyperbeam",
    "tm:incinerate",
    "tm:irontail",
    "tm:lowkick",
    "tm:lowsweep",
    "tm:megakick",
    "tm:megapunch",
    "tm:mysticalfire",
    "tm:naturalgift",
    "tm:overheat",
    "tm:powerswap",
    "tm:poweruppunch",
    "tm:protect",
    "tm:psychic",
    "tm:rest",
    "tm:return",
    "tm:rockclimb",
    "tm:rockslide",
    "tm:rocksmash",
    "tm:rocktomb",
    "tm:round",
    "tm:scaryface",
    "tm:screech",
    "tm:secretpower",
    "tm:sleeptalk",
    "tm:snore",
    "tm:solarbeam",
    "tm:stompingtantrum",
    "tm:strength",
    "tm:substitute",
    "tm:sunnyday",
    "tm:swagger",
    "tm:taunt",
    "tm:thief",
    "tm:thunderbolt",
    "tm:thunderpunch",
    "tm:torment",
    "tm:toxic",
    "tm:uproar",
    "tm:weatherball",
    "tm:willowisp",
    "tutor:burningjealousy",
    "tutor:confuseray",
    "tutor:covet",
    "tutor:dualchop",
    "tutor:firepunch",
    "tutor:flamethrower",
    "tutor:focuspunch",
    "tutor:headbutt",
    "tutor:heatwave",
    "tutor:helpinghand",
    "tutor:hyperbeam",
    "tutor:irontail",
    "tutor:lavaplume",
    "tutor:lowkick",
    "tutor:mudslap",
    "tutor:psychic",
    "tutor:scorchingsands",
    "tutor:sleeptalk",
    "tutor:snore",
    "tutor:solarbeam",
    "tutor:stompingtantrum",
    "tutor:thunderpunch"
  ],
  "labels": [
    "gen4"
  ],
  "pokedex": [
    "cobblemon.species.magmortar.desc"
  ],
  "preEvolution": "magmar",
  "evolutions": [],
  "baseScale": 1.25,
  "hitbox": {
    "width": 1.1,
    "height": 2.1,
    "fixed": false
  },
  "baseFriendship": 50,
  "evYield": {
    "hp": 0,
    "attack": 0,
    "defence": 0,
    "special_attack": 3,
    "special_defence": 0,
    "speed": 0
  },
  "height": 16,
  "weight": 680,
  "aspects": [],
  "cannotDynamax": false
}