{
  "implemented": true,
  "name": "Tangrowth",
  "nationalPokedexNumber": 465,
  "primaryType": "grass",
  "abilities": [
    "chlorophyll",
    "leafguard",
    "h:regenerator"
  ],
  "baseStats": {
    "hp": 100,
    "attack": 100,
    "defence": 125,
    "special_attack": 110,
    "special_defence": 50,
    "speed": 50
  },
  "catchRate": 30,
  "maleRatio": 0.5,
  "shoulderMountable": false,
  "baseExperienceYield": 187,
  "experienceGroup": "medium_fast",
  "eggCycles": 20,
  "eggGroups": [
    "grass"
  ],
  "drops": {
    "amount": "2",
    "entries": [
      {
        "item": "minecraft:vines",
        "quantityRange": "1-2",
        "percentage": 66
      },
      {
        "item": "cobblemon:big_root",
        "percentage": 5
      }
    ]
  },
  "moves": [
    "1:absorb",
    "1:bind",
    "1:block",
    "1:constrict",
    "1:growth",
    "1:ingrain",
    "1:stunspore",
    "4:sleeppowder",
    "5:sleeppowder",
    "7:vinewhip",
    "8:absorb",
    "10:absorb",
    "12:growth",
    "12:megadrain",
    "14:poisonpowder",
    "15:poisonpowder",
    "16:vinewhip",
    "17:bind",
    "19:vinewhip",
    "20:growth",
    "20:poisonpowder",
    "22:bind",
    "23:megadrain",
    "24:ancientpower",
    "26:megadrain",
    "27:knockoff",
    "28:knockoff",
    "29:stunspore",
    "30:stunspore",
    "32:gigadrain",
    "33:ancientpower",
    "33:knockoff",
    "33:naturalgift",
    "36:ancientpower",
    "36:gigadrain",
    "36:knockoff",
    "36:sleeppowder",
    "40:ancientpower",
    "40:naturalgift",
    "40:slam",
    "43:slam",
    "44:tickle",
    "46:tickle",
    "47:tickle",
    "48:powerwhip",
    "49:wringout",
    "50:grassyterrain",
    "50:wringout",
    "52:ingrain",
    "53:powerwhip",
    "54:powerwhip",
    "56:grassyterrain",
    "57:block",
    "tm:aerialace",
    "tm:amnesia",
    "tm:attract",
    "tm:bodyslam",
    "tm:brickbreak",
    "tm:brutalswing",
    "tm:bulldoze",
    "tm:bulletseed",
    "tm:captivate",
    "tm:confide",
    "tm:cut",
    "tm:doubleteam",
    "tm:earthquake",
    "tm:endure",
    "tm:energyball",
    "tm:facade",
    "tm:flash",
    "tm:fling",
    "tm:focusblast",
    "tm:frustration",
    "tm:gigadrain",
    "tm:gigaimpact",
    "tm:grassknot",
    "tm:grassyterrain",
    "tm:hiddenpower",
    "tm:hyperbeam",
    "tm:infestation",
    "tm:leafstorm",
    "tm:naturalgift",
    "tm:naturepower",
    "tm:payback",
    "tm:poisonjab",
    "tm:powerswap",
    "tm:powerwhip",
    "tm:protect",
    "tm:psychup",
    "tm:reflect",
    "tm:rest",
    "tm:return",
    "tm:rockslide",
    "tm:rocksmash",
    "tm:rocktomb",
    "tm:round",
    "tm:secretpower",
    "tm:seedbomb",
    "tm:shockwave",
    "tm:sleeptalk",
    "tm:sludgebomb",
    "tm:snore",
    "tm:solarbeam",
    "tm:solarblade",
    "tm:stompingtantrum",
    "tm:strength",
    "tm:substitute",
    "tm:sunnyday",
    "tm:swagger",
    "tm:swordsdance",
    "tm:thief",
    "tm:toxic",
    "tutor:ancientpower",
    "tutor:bind",
    "tutor:block",
    "tutor:endeavor",
    "tutor:gigadrain",
    "tutor:grassyglide",
    "tutor:headbutt",
    "tutor:knockoff",
    "tutor:morningsun",
    "tutor:mudslap",
    "tutor:naturalgift",
    "tutor:painsplit",
    "tutor:seedbomb",
    "tutor:shockwave",
    "tutor:sleeptalk",
    "tutor:snore",
    "tutor:stompingtantrum",
    "tutor:sunnyday",
    "tutor:synthesis",
    "tutor:worryseed"
  ],
  "labels": [
    "gen4"
  ],
  "pokedex": [
    "cobblemon.species.tangrowth.desc"
  ],
  "preEvolution": "tangela",
  "evolutions": [],
  "baseScale": 2,
  "hitbox": {
    "width": 0.9,
    "height": 1.2,
    "fixed": false
  },
  "baseFriendship": 50,
  "evYield": {
    "hp": 0,
    "attack": 0,
    "defence": 2,
    "special_attack": 0,
    "special_defence": 0,
    "speed": 0
  },
  "height": 20,
  "weight": 1286,
  "aspects": [],
  "cannotDynamax": false
}