{
  "name": "Crabrawler",
  "nationalPokedexNumber": 739,
  "primaryType": "fighting",
  "abilities": [
    "hypercutter",
    "ironfist",
    "h:angerpoint"
  ],
  "baseStats": {
    "hp": 47,
    "attack": 82,
    "defence": 57,
    "special_attack": 42,
    "special_defence": 47,
    "speed": 63
  },
  "catchRate": 225,
  "maleRatio": 0.5,
  "shoulderMountable": false,
  "baseExperienceYield": 68,
  "experienceGroup": "medium_fast",
  "eggCycles": 20,
  "eggGroups": [
    "water_3"
  ],
  "moves": [
    "1:bubble",
    "1:visegrip",
    "5:rocksmash",
    "9:leer",
    "13:bubblebeam",
    "13:pursuit",
    "17:protect",
    "22:brickbreak",
    "22:poweruppunch",
    "25:dizzypunch",
    "25:slam",
    "29:payback",
    "33:reversal",
    "37:crabhammer",
    "42:irondefense",
    "45:dynamicpunch",
    "49:closecombat",
    "egg:amnesia",
    "egg:endeavor",
    "egg:focuspunch",
    "egg:superpower",
    "egg:wideguard",
    "tm:amnesia",
    "tm:attract",
    "tm:bodyslam",
    "tm:brickbreak",
    "tm:brutalswing",
    "tm:bulkup",
    "tm:bulldoze",
    "tm:chillingwater",
    "tm:closecombat",
    "tm:confide",
    "tm:dig",
    "tm:doubleteam",
    "tm:drainpunch",
    "tm:earthquake",
    "tm:endure",
    "tm:facade",
    "tm:fling",
    "tm:focusblast",
    "tm:frostbreath",
    "tm:frustration",
    "tm:gunkshot",
    "tm:helpinghand",
    "tm:hiddenpower",
    "tm:icepunch",
    "tm:irondefense",
    "tm:ironhead",
    "tm:liquidation",
    "tm:mudshot",
    "tm:mudslap",
    "tm:payback",
    "tm:protect",
    "tm:raindance",
    "tm:rest",
    "tm:return",
    "tm:reversal",
    "tm:rockslide",
    "tm:rocktomb",
    "tm:round",
    "tm:scald",
    "tm:sleeptalk",
    "tm:stompingtantrum",
    "tm:stoneedge",
    "tm:substitute",
    "tm:sunnyday",
    "tm:swagger",
    "tm:swift",
    "tm:takedown",
    "tm:terablast",
    "tm:thief",
    "tm:thunderpunch",
    "tm:toxic",
    "tm:workup",
    "tm:zenheadbutt",
    "tutor:drainpunch",
    "tutor:dualchop",
    "tutor:endeavor",
    "tutor:focuspunch",
    "tutor:icepunch",
    "tutor:irondefense",
    "tutor:ironhead",
    "tutor:snore",
    "tutor:superpower",
    "tutor:thunderpunch",
    "tutor:zenheadbutt"
  ],
  "labels": [
    "gen7"
  ],
  "pokedex": [
    "cobblemon.species.crabrawler.desc"
  ],
  "evolutions": [
    {
      "id": "crabrawler_crabominable",
      "variant": "item_interact",
      "result": "crabominable",
      "consumeHeldItem": false,
      "learnableMoves": [
        "icepunch"
      ],
      "requirements": [],
      "requiredContext": "cobblemon:ice_stone"
    }
  ],
  "baseScale": 1,
  "hitbox": {
    "width": 1,
    "height": 1,
    "fixed": false
  },
  "baseFriendship": 70,
  "evYield": {
    "hp": 0,
    "attack": 1,
    "defence": 0,
    "special_attack": 0,
    "special_defence": 0,
    "speed": 0
  },
  "height": 6,
  "weight": 70,
  "aspects": [],
  "cannotDynamax": false
}