{
  "name": "Duskull",
  "nationalPokedexNumber": 355,
  "primaryType": "ghost",
  "abilities": [
    "levitate",
    "h:frisk"
  ],
  "baseStats": {
    "hp": 20,
    "attack": 40,
    "defence": 90,
    "special_attack": 30,
    "special_defence": 90,
    "speed": 25
  },
  "catchRate": 190,
  "maleRatio": 0.5,
  "shoulderMountable": false,
  "baseExperienceYield": 59,
  "experienceGroup": "fast",
  "eggCycles": 25,
  "eggGroups": [
    "amorphous"
  ],
  "moves": [
    "1:astonish",
    "1:leer",
    "4:disable",
    "8:shadowsneak",
    "12:confuseray",
    "14:foresight",
    "16:nightshade",
    "20:payback",
    "22:pursuit",
    "24:willowisp",
    "28:meanlook",
    "32:hex",
    "36:curse",
    "40:shadowball",
    "44:futuresight",
    "egg:darkpulse",
    "egg:destinybond",
    "egg:feintattack",
    "egg:grudge",
    "egg:haze",
    "egg:imprison",
    "egg:memento",
    "egg:ominouswind",
    "egg:painsplit",
    "egg:skillswap",
    "tm:allyswitch",
    "tm:attract",
    "tm:blizzard",
    "tm:bodyslam",
    "tm:calmmind",
    "tm:captivate",
    "tm:chargebeam",
    "tm:confide",
    "tm:darkpulse",
    "tm:doubleteam",
    "tm:dreameater",
    "tm:embargo",
    "tm:endure",
    "tm:facade",
    "tm:flash",
    "tm:fling",
    "tm:frustration",
    "tm:futuresight",
    "tm:helpinghand",
    "tm:hex",
    "tm:hiddenpower",
    "tm:icebeam",
    "tm:icywind",
    "tm:imprison",
    "tm:infestation",
    "tm:naturalgift",
    "tm:payback",
    "tm:protect",
    "tm:psychic",
    "tm:psychup",
    "tm:raindance",
    "tm:rest",
    "tm:return",
    "tm:revenge",
    "tm:round",
    "tm:secretpower",
    "tm:shadowball",
    "tm:skillswap",
    "tm:sleeptalk",
    "tm:snatch",
    "tm:snore",
    "tm:substitute",
    "tm:sunnyday",
    "tm:swagger",
    "tm:taunt",
    "tm:telekinesis",
    "tm:thief",
    "tm:torment",
    "tm:toxic",
    "tm:trick",
    "tm:trickroom",
    "tm:willowisp",
    "tm:wonderroom",
    "tutor:allyswitch",
    "tutor:astonish",
    "tutor:bodyslam",
    "tutor:confuseray",
    "tutor:curse",
    "tutor:darkpulse",
    "tutor:disable",
    "tutor:doubleedge",
    "tutor:dreameater",
    "tutor:endure",
    "tutor:gravity",
    "tutor:headbutt",
    "tutor:helpinghand",
    "tutor:icywind",
    "tutor:meanlook",
    "tutor:mimic",
    "tutor:nightmare",
    "tutor:ominouswind",
    "tutor:painsplit",
    "tutor:poltergeist",
    "tutor:psychup",
    "tutor:pursuit",
    "tutor:shadowball",
    "tutor:skillswap",
    "tutor:skittersmack",
    "tutor:sleeptalk",
    "tutor:snatch",
    "tutor:snore",
    "tutor:spite",
    "tutor:substitute",
    "tutor:suckerpunch",
    "tutor:swagger",
    "tutor:telekinesis",
    "tutor:trick",
    "tutor:willowisp",
    "tutor:wonderroom"
  ],
  "labels": [
    "gen3"
  ],
  "pokedex": [
    "cobblemon.species.duskull.desc"
  ],
  "evolutions": [
    {
      "id": "duskull_dusclops",
      "variant": "level_up",
      "result": "dusclops",
      "consumeHeldItem": false,
      "learnableMoves": [
        "shadowpunch"
      ],
      "requirements": [
        {
          "variant": "level",
          "minLevel": 37
        }
      ]
    }
  ],
  "baseScale": 1,
  "hitbox": {
    "width": 1,
    "height": 1,
    "fixed": false
  },
  "baseFriendship": 35,
  "evYield": {
    "hp": 0,
    "attack": 0,
    "defence": 0,
    "special_attack": 0,
    "special_defence": 1,
    "speed": 0
  },
  "height": 8,
  "weight": 150,
  "aspects": [],
  "cannotDynamax": false
}