{
  "name": "Electrike",
  "nationalPokedexNumber": 309,
  "primaryType": "electric",
  "abilities": [
    "static",
    "lightningrod",
    "h:minus"
  ],
  "baseStats": {
    "hp": 40,
    "attack": 45,
    "defence": 40,
    "special_attack": 65,
    "special_defence": 40,
    "speed": 65
  },
  "catchRate": 120,
  "maleRatio": 0.5,
  "shoulderMountable": false,
  "baseExperienceYield": 59,
  "experienceGroup": "slow",
  "eggCycles": 20,
  "eggGroups": [
    "field"
  ],
  "moves": [
    "1:tackle",
    "1:thunderwave",
    "4:leer",
    "8:howl",
    "12:quickattack",
    "13:spark",
    "16:odorsleuth",
    "16:shockwave",
    "20:bite",
    "24:thunderfang",
    "28:roar",
    "32:discharge",
    "36:charge",
    "40:wildcharge",
    "44:thunder",
    "egg:crunch",
    "egg:curse",
    "egg:discharge",
    "egg:eerieimpulse",
    "egg:electroball",
    "egg:firefang",
    "egg:flameburst",
    "egg:headbutt",
    "egg:icefang",
    "egg:shockwave",
    "egg:spark",
    "egg:swift",
    "egg:switcheroo",
    "egg:thunderfang",
    "egg:uproar",
    "tm:agility",
    "tm:attract",
    "tm:bodyslam",
    "tm:captivate",
    "tm:chargebeam",
    "tm:confide",
    "tm:crunch",
    "tm:doubleteam",
    "tm:eerieimpulse",
    "tm:electroball",
    "tm:endure",
    "tm:facade",
    "tm:firefang",
    "tm:flamethrower",
    "tm:flash",
    "tm:frustration",
    "tm:hiddenpower",
    "tm:icefang",
    "tm:irontail",
    "tm:lightscreen",
    "tm:naturalgift",
    "tm:protect",
    "tm:psychicfangs",
    "tm:raindance",
    "tm:rest",
    "tm:return",
    "tm:roar",
    "tm:round",
    "tm:secretpower",
    "tm:shockwave",
    "tm:sleeptalk",
    "tm:snarl",
    "tm:snore",
    "tm:strength",
    "tm:substitute",
    "tm:swagger",
    "tm:swift",
    "tm:thief",
    "tm:thunder",
    "tm:thunderbolt",
    "tm:thunderfang",
    "tm:thunderwave",
    "tm:toxic",
    "tm:uproar",
    "tm:voltswitch",
    "tm:wildcharge",
    "tutor:bodyslam",
    "tutor:doubleedge",
    "tutor:endure",
    "tutor:headbutt",
    "tutor:icefang",
    "tutor:irontail",
    "tutor:magnetrise",
    "tutor:mimic",
    "tutor:mudslap",
    "tutor:risingvoltage",
    "tutor:shockwave",
    "tutor:signalbeam",
    "tutor:sleeptalk",
    "tutor:snore",
    "tutor:substitute",
    "tutor:swagger",
    "tutor:swift",
    "tutor:thunderwave",
    "tutor:uproar"
  ],
  "labels": [
    "gen3"
  ],
  "pokedex": [
    "cobblemon.species.electrike.desc"
  ],
  "evolutions": [
    {
      "id": "electrike_manectric",
      "variant": "level_up",
      "result": "manectric",
      "consumeHeldItem": false,
      "learnableMoves": [],
      "requirements": [
        {
          "variant": "level",
          "minLevel": 26
        }
      ]
    }
  ],
  "baseScale": 1,
  "hitbox": {
    "width": 1,
    "height": 1,
    "fixed": false
  },
  "baseFriendship": 50,
  "evYield": {
    "hp": 0,
    "attack": 0,
    "defence": 0,
    "special_attack": 0,
    "special_defence": 0,
    "speed": 1
  },
  "height": 6,
  "weight": 152,
  "aspects": [],
  "cannotDynamax": false
}